k,w1,w100,w1000
5,0.6,0.8,0.4
10,0.3,0.6,0.6
20,0.15,0.7,0.65
30,0.166667,0.7666665,0.766665
40,0.225,0.7,0.775
50,0.28,0.72,0.76
60,0.233333,0.716664,0.766665
70,0.2428,0.7285,0.7714
80,0.3125,0.7125,0.75
90,0.3222223,0.7,0.766665
100,0.3,0.68,0.75