subject	predicate	object
Homer	isMarriedTo	Marge
Marge	isMarriedTo	Homer
Homer	worksFor	Mr.Burns
Homer	worksFor	Power_Station_Springfield
Power_Station_Springfield	locatedIn	Springfield
Apu	worksFor	kwickie_Markt
kwickie_Markt	locatedIn	Springfield
Homer	livesIn	Springfield
Lisa	influences	Homer
Homer	influences	Marge
Lisa	influences	Marge
Marge	livesIn	Springfield
Homer	hasChild	Bart
Homer	hasChild	Lisa
Homer	hasChild	Maggi
Marge	hasChild	Lisa
Marge	hasChild	Bart
Marge	hasChild	Maggi